{
  "CN": "kubernetes",
  "hosts": [
    "worker0.c1.munda.io"

  ],
  "key": {
    "algo": "rsa",
    "size": 2048
  },
  "names": [
    {
      "C": "US",
      "L": "Portland",
      "O": "Kubernetes",
      "OU": "Cluster",
      "ST": "Oregon"
    }
  ]
}
